…
```
## # A tibble: 28,835 × 18
## # Groups:   year [64]
##    time                date        year country   dayofweek   mag latitude
##    <dttm>              <date>     <dbl> <chr>     <ord>     <dbl>    <dbl>
##  1 1960-01-02 12:21:58 1960-01-02  1960 <NA>      Saturday   6.31   -55.9 
##  2 1960-01-03 11:24:05 1960-01-03  1960 China     Sunday     5.69    43.7 
##  3 1960-01-04 06:16:35 1960-01-04  1960 Djibouti  Monday     6.07    11.4 
##  4 1960-01-07 08:15:27 1960-01-07  1960 Indonesia Thursday   5.56     6.42
##  5 1960-01-07 13:28:20 1960-01-07  1960 <NA>      Thursday   6.23   -55.6 
##  6 1960-01-07 23:17:24 1960-01-07  1960 Indonesia Thursday   5.52     6.40
##  7 1960-01-08 11:29:21 1960-01-08  1960 <NA>      Friday     5.88   -55.6 
##  8 1960-01-08 14:46:02 1960-01-08  1960 <NA>      Friday     6.01   -55.6 
##  9 1960-01-11 03:10:18 1960-01-11  1960 Myanmar   Monday     5.64    16.0 
## 10 1960-01-12 01:52:40 1960-01-12  1960 Taiwan    Tuesday    5.84    23.4 
## # ℹ 28,825 more rows
## # ℹ 11 more variables: longitude <dbl>, depth <dbl>, mag_type <chr>,
## #   place <chr>, type <chr>, horizontal_error <dbl>, depth_error <dbl>,
## #   mag_error <dbl>, month <dbl>, avg_mag <dbl>, avg_mag_err <dbl>
```
…
```r
earthquakes_90s_filtered=earthquakes %>%                          #create new df
  filter(between(date, as.Date("1990-01-01"),              #filter all 90s dates
                               as.Date("1999-12-31"))) %>%
  drop_na(country, mag) %>%               #remove all rows w/o country or mag listed
  mutate(year=year(date)) %>%
  select(time, date, year, country, everything(), -place) %>%            #arrange cols
print()                                    #View object created appears properly 
```

```
## # A tibble: 3,812 × 17
## # Groups:   year [10]
##    time                date        year country   dayofweek   mag latitude
##    <dttm>              <date>     <dbl> <chr>     <ord>     <dbl>    <dbl>
##  1 1990-01-02 20:21:32 1990-01-02  1990 Guam      Tuesday     5.8     13.4
##  2 1990-01-04 05:32:21 1990-01-04  1990 Tonga     Thursday    6.5    -15.4
##  3 1990-01-05 10:10:21 1990-01-05  1990 Indonesia Friday      5.8     -8.8
##  4 1990-01-05 13:03:44 1990-01-05  1990 Chile     Friday      5.5    -19.3
##  5 1990-01-05 18:27:00 1990-01-05  1990 Mexico    Friday      6       18.9
##  6 1990-01-07 09:06:43 1990-01-07  1990 Peru      Sunday      5.5    -15.9
##  7 1990-01-08 19:44:34 1990-01-08  1990 Alaska    Monday      6       52.0
##  8 1990-01-09 02:29:26 1990-01-09  1990 India     Tuesday     5.5     28.2
##  9 1990-01-09 04:58:39 1990-01-09  1990 Alaska    Tuesday     5.8     52.0
## 10 1990-01-09 15:35:49 1990-01-09  1990 India     Tuesday     5.7     11.6
## # ℹ 3,802 more rows
## # ℹ 10 more variables: longitude <dbl>, depth <dbl>, mag_type <chr>,
## #   type <chr>, horizontal_error <dbl>, depth_error <dbl>, mag_error <dbl>,
## #   month <dbl>, avg_mag <dbl>, avg_mag_err <dbl>
```
…
*Side note: thoughts on this section... I could not get `mutate()` or `mutate_if()` cases to work here because despite correctly transforming the `dayofweek` column class type from logical to character, it would not be able to mutate on a logical class type. Might this be because of background number affiliated with names (ex: Monday=1)?* \
*`weekend_ls <- list("Saturday", "Sunday")` and `weekday_ls <- list("Monday", "Tuesday", "Wednesday", "Thursday", "Friday")` for `mutate(weekend=filter(dayofweek==weekend_ls))`
*`mutate_if(dayofweek, is.logical(weekend=filter(dayofweek %in% c("Saturday", "Sunday"))), as.character)` to no avail. 


```r
#Start and run this code if we wanted dates too (ex. yearly weekend vs. weekday)
earthquakes_weekdays=earthquakes %>%                         #create new df
  mutate(dayofweek=as.character(dayofweek)) %>%              #change class type
print()#view object created appears properly
```

```
## # A tibble: 28,835 × 18
## # Groups:   year [64]
##    time                date        year country   dayofweek   mag latitude
##    <dttm>              <date>     <dbl> <chr>     <chr>     <dbl>    <dbl>
##  1 1960-01-02 12:21:58 1960-01-02  1960 <NA>      Saturday   6.31   -55.9 
##  2 1960-01-03 11:24:05 1960-01-03  1960 China     Sunday     5.69    43.7 
##  3 1960-01-04 06:16:35 1960-01-04  1960 Djibouti  Monday     6.07    11.4 
##  4 1960-01-07 08:15:27 1960-01-07  1960 Indonesia Thursday   5.56     6.42
##  5 1960-01-07 13:28:20 1960-01-07  1960 <NA>      Thursday   6.23   -55.6 
##  6 1960-01-07 23:17:24 1960-01-07  1960 Indonesia Thursday   5.52     6.40
##  7 1960-01-08 11:29:21 1960-01-08  1960 <NA>      Friday     5.88   -55.6 
##  8 1960-01-08 14:46:02 1960-01-08  1960 <NA>      Friday     6.01   -55.6 
##  9 1960-01-11 03:10:18 1960-01-11  1960 Myanmar   Monday     5.64    16.0 
## 10 1960-01-12 01:52:40 1960-01-12  1960 Taiwan    Tuesday    5.84    23.4 
## # ℹ 28,825 more rows
## # ℹ 11 more variables: longitude <dbl>, depth <dbl>, mag_type <chr>,
## #   place <chr>, type <chr>, horizontal_error <dbl>, depth_error <dbl>,
## #   mag_error <dbl>, month <dbl>, avg_mag <dbl>, avg_mag_err <dbl>
```
…
```
## # A tibble: 448 × 9
##     year dayofweek     n week_type week_type_total dayofweek_total total
##    <dbl> <ord>     <int> <chr>               <int>           <int> <dbl>
##  1  1960 Sunday       40 Weekend              8284            4074 28835
##  2  1960 Monday       37 Weekday             20551            4072 28835
##  3  1960 Tuesday      40 Weekday             20551            4026 28835
##  4  1960 Wednesday    47 Weekday             20551            4220 28835
##  5  1960 Thursday     41 Weekday             20551            4114 28835
##  6  1960 Friday       35 Weekday             20551            4119 28835
##  7  1960 Saturday     38 Weekend              8284            4210 28835
##  8  1961 Sunday       41 Weekend              8284            4074 28835
##  9  1961 Monday       45 Weekday             20551            4072 28835
## 10  1961 Tuesday      32 Weekday             20551            4026 28835
## # ℹ 438 more rows
## # ℹ 2 more variables: proportion <dbl>, proportion_all <dbl>
```
…
#### 3.2: Question 3  \
**Has there been any change in the frequency of earthquakes?                            Include a figure [5 marks]** \

- Yes? Based on plotting the total number of earthquakes (all types) throughout time there appears to be an overall slightly positive trend that they are increasing in appearance/frequency.  


```r
earthquakes_time=earthquakes %>%                              #create new df
  group_by(year) %>%
  count() %>%
print()                                   #View object created appears properly 
```

```
## # A tibble: 64 × 2
## # Groups:   year [64]
##     year     n
##    <dbl> <int>
##  1  1960   278
##  2  1961   248
##  3  1962   215
##  4  1963   309
##  5  1964   394
##  6  1965   458
##  7  1966   306
##  8  1967   341
##  9  1968   405
## 10  1969   414
## # ℹ 54 more rows
```
…
```r
earthquakes_time2=earthquakes %>% 
  group_by(year, month) %>%
  count() %>%                                             
print()
```

```
## # A tibble: 768 × 3
## # Groups:   year, month [768]
##     year month     n
##    <dbl> <dbl> <int>
##  1  1960     1    21
##  2  1960     2    14
##  3  1960     3    32
##  4  1960     4    11
##  5  1960     5    33
##  6  1960     6    30
##  7  1960     7    27
##  8  1960     8    19
##  9  1960     9    29
## 10  1960    10    22
## # ℹ 758 more rows
```
…
#### 3.3: Question 4  \
**Where were there more earthquakes in the 1990s, South America or North America? Include a figure [5 marks]** \

- There were more earthquakes in South America (n=344) than North America (n=230) throughout the 1990s (1990-1999). This data does not account for i.) unidentified countries and ii.) country locations according to latitude, only those formally recognized as being within North or South America. 


```r
earthquakes_90s_filtered_sum=earthquakes_90s_filtered %>%
  group_by(continent, year, country) %>%
  count() %>%
print()#View object created appears properly 
```

```
## # A tibble: 126 × 4
## # Groups:   continent, year, country [126]
##    continent      year country       n
##    <chr>         <dbl> <chr>     <int>
##  1 North America  1990 Canada        1
##  2 North America  1990 Cuba          1
##  3 North America  1990 Guatemala     2
##  4 North America  1990 Mexico        4
##  5 North America  1990 Nicaragua     4
##  6 North America  1990 Panama        3
##  7 North America  1991 Canada        3
##  8 North America  1991 Guatemala     2
##  9 North America  1991 Mexico       11
## 10 North America  1991 Panama        4
## # ℹ 116 more rows
```
…
a.) It appears that on a global average earthquakes overall are steadily increasing.. we could see this trend line from our Q3 figure too. \
b.) Naturally occurring earthquakes (to our knowledge) are consistently the most common type recorded within this data frame. We begin to see an increase in nuclear explosions resulting in earthquakes between approximately 1975 to the late 1980s then decrease again. This makes sense, as the nuclear arms race apart of the Cold War was ongoing at this time, ending in 1991. Other noted explosions are not reported very well (n=5), and reflect poorly within our figure. \
c.) We see really high average monthly magnitude resolution values prior to the 1970s, a decrease between the mid 1970s to mid 1980s, and then average magnitude values appear to remain stable or consistent onwards. However, this can also maybe in part be explained by the increase in earthquakes overall: the more data points you have with a similar range the more likely you'll get a lower or more central average. But based on the average annual magnitude there is 'little' change but the average monthly values within years are a lot crazier (higher highs and lower lows). Or it might be because of changes in technology, so magnitude resolution can detect lower lows, but that would mean that the highs are very much higher (makes sense?).


```r
earthquakes_frequency_sum=earthquakes %>%  #create new df
  group_by(year, type) %>%
  count() %>%
print()#View object created appears properly 
```

```
## # A tibble: 100 × 3
## # Groups:   year, type [100]
##     year type                  n
##    <dbl> <chr>             <int>
##  1  1960 earthquake          278
##  2  1961 earthquake          247
##  3  1961 nuclear explosion     1
##  4  1962 earthquake          215
##  5  1963 earthquake          309
##  6  1964 earthquake          394
##  7  1965 earthquake          458
##  8  1966 earthquake          305
##  9  1966 nuclear explosion     1
## 10  1967 earthquake          341
## # ℹ 90 more rows
```
…
```
## # A tibble: 100 × 4
## # Groups:   year [64]
##     year total_quakes type              total_quakes_per_type
##    <dbl>        <int> <chr>                             <int>
##  1  1960          278 Earthquake                          278
##  2  1961          248 Earthquake                          247
##  3  1961          248 Nuclear Explosion                     1
##  4  1962          215 Earthquake                          215
##  5  1963          309 Earthquake                          309
##  6  1964          394 Earthquake                          394
##  7  1965          458 Earthquake                          458
##  8  1966          306 Earthquake                          305
##  9  1966          306 Nuclear Explosion                     1
## 10  1967          341 Earthquake                          341
## # ℹ 90 more rows
```
…
*Side note: one thing that happens when code is continuously manipulated down from the larger data frame is it can cause confusion later on from where you're pulling from. This is also how one ends up with waaaay too many new data frames with various, later absolutely nonsensical, data frame names. In future, loading in a CLEAN data frame consistently with one `Rmarkdown` per figure keeps things more organized.* \

Yeah.. but this is tough when you only want specific values, or a smaller subset...


```r
mag=earthquakes %>%
  group_by(year, month) %>%
  mutate(avg_mag_ym=round(mean(mag, na.rm=TRUE), 2)) %>%
  select(date, year, month, avg_mag, avg_mag_err, avg_mag_ym) %>%
print()#View object created appears properly
```

```
## # A tibble: 28,835 × 6
## # Groups:   year, month [768]
##    date        year month avg_mag avg_mag_err avg_mag_ym
##    <date>     <dbl> <dbl>   <dbl>       <dbl>      <dbl>
##  1 1960-01-02  1960     1    6.08        0.31       6.04
##  2 1960-01-03  1960     1    6.08        0.31       6.04
##  3 1960-01-04  1960     1    6.08        0.31       6.04
##  4 1960-01-07  1960     1    6.08        0.31       6.04
##  5 1960-01-07  1960     1    6.08        0.31       6.04
##  6 1960-01-07  1960     1    6.08        0.31       6.04
##  7 1960-01-08  1960     1    6.08        0.31       6.04
##  8 1960-01-08  1960     1    6.08        0.31       6.04
##  9 1960-01-11  1960     1    6.08        0.31       6.04
## 10 1960-01-12  1960     1    6.08        0.31       6.04
## # ℹ 28,825 more rows
```
…
